<svg width="34" height="34" viewBox="0 0 34 34" fill="none" xmlns="http://www.w3.org/2000/svg">
<rect width="34" height="34" rx="17" fill="#F3F3F3"/>
<path d="M18.4336 21L14.4336 17L18.4336 13L19.5683 14.1348L16.7031 17L19.5683 19.8652L18.4336 21Z" fill="black"/>
</svg>
